{
  "project_info": {
    "project_number": "41601651402",
    "firebase_url": "https://lostfound-546ff.firebaseio.com",
    "project_id": "lostfound-546ff",
    "storage_bucket": "lostfound-546ff.appspot.com"
  },
  "client": [
    {
      "client_info": {
        "mobilesdk_app_id": "1:41601651402:android:08c44567b2bc8491d55a33",
        "android_client_info": {
          "package_name": "com.lost_found"
        }
      },
      "oauth_client": [
        {
          "client_id": "41601651402-hujs6dn0o09h1b66qujjcq1uc0la5l3k.apps.googleusercontent.com",
          "client_type": 3
        }
      ],
      "api_key": [
        {
          "current_key": "AIzaSyB_is8DLFaLPjcmwJKgLvAwkRrcObdOlco"
        }
      ],
      "services": {
        "appinvite_service": {
          "other_platform_oauth_client": [
            {
              "client_id": "41601651402-hujs6dn0o09h1b66qujjcq1uc0la5l3k.apps.googleusercontent.com",
              "client_type": 3
            }
          ]
        }
      }
    }
  ],
  "configuration_version": "1"
}